﻿date;ICUBedOccupied
18/04/2020;124
19/04/2020;124
20/04/2020;147
21/04/2020;145
22/04/2020;163
23/04/2020;180
24/04/2020;181
25/04/2020;182
26/04/2020;181
27/04/2020;183
28/04/2020;182
29/04/2020;164
30/04/2020;161
01/05/2020;172
02/05/2020;186
03/05/2020;177
04/05/2020;169
05/05/2020;174
06/05/2020;184
07/05/2020;171
08/05/2020;184
09/05/2020;190
10/05/2020;203
11/05/2020;196
12/05/2020;181
13/05/2020;183
14/05/2020;187
15/05/2020;185
16/05/2020;206
17/05/2020;219
18/05/2020;216
19/05/2020;225
20/05/2020;220
21/05/2020;225
22/05/2020;237
23/05/2020;237
24/05/2020;233
25/05/2020;228
26/05/2020;226
27/05/2020;239
28/05/2020;258
29/05/2020;245
30/05/2020;260
31/05/2020;265
01/06/2020;280
02/06/2020;296
