data,escopo,territorio,tipo_idade,tipo_leito,estoque_leitos,ocupacao
2020-04-24,estadual,Paraná,Adulto,UTI,529,170
2020-04-24,estadual,Paraná,Pediátrica,UTI,35,11
2020-04-24,estadual,Paraná,Adulto,Enfermaria,1054,267
2020-04-24,estadual,Paraná,Pediátrica,Enfermaria,67,11
2020-04-24,regional,Leste,Adulto,UTI,308,
2020-04-24,regional,Leste,Pediátrica,UTI,21,
2020-04-24,regional,Leste,Adulto,Enfermaria,555,
2020-04-24,regional,Leste,Pediátrica,Enfermaria,32,
2020-04-24,regional,Oeste,Adulto,UTI,61,
2020-04-24,regional,Oeste,Pediátrica,UTI,0,
2020-04-24,regional,Oeste,Adulto,Enfermaria,124,
2020-04-24,regional,Oeste,Pediátrica,Enfermaria,3,
2020-04-24,regional,Noroeste,Adulto,UTI,91,
2020-04-24,regional,Noroeste,Pediátrica,UTI,11,
2020-04-24,regional,Noroeste,Adulto,Enfermaria,211,
2020-04-24,regional,Noroeste,Pediátrica,Enfermaria,18,
2020-04-24,regional,Norte,Adulto,UTI,69,
2020-04-24,regional,Norte,Pediátrica,UTI,3,
2020-04-24,regional,Norte,Adulto,Enfermaria,164,
2020-04-24,regional,Norte,Pediátrica,Enfermaria,14,
